job 1 done
# length = 100
# time_steps = 100000
# total_ants = 20000
# seed = 1
# filename = ants.nc
# netcdf_output_steps = 0
# screen_output_steps = 0
job 4 done
# length = 100
# time_steps = 100000
# total_ants = 20000
# seed = 4
# filename = ants.nc
# netcdf_output_steps = 0
# screen_output_steps = 0
job 7 done
# length = 100
# time_steps = 100000
# total_ants = 20000
# seed = 7
# filename = ants.nc
# netcdf_output_steps = 0
# screen_output_steps = 0
job 2 done
# length = 100
# time_steps = 100000
# total_ants = 20000
# seed = 2
# filename = ants.nc
# netcdf_output_steps = 0
# screen_output_steps = 0
job 3 done
# length = 100
# time_steps = 100000
# total_ants = 20000
# seed = 3
# filename = ants.nc
# netcdf_output_steps = 0
# screen_output_steps = 0
job 6 done
# length = 100
# time_steps = 100000
# total_ants = 20000
# seed = 6
# filename = ants.nc
# netcdf_output_steps = 0
# screen_output_steps = 0
job 5 done
# length = 100
# time_steps = 100000
# total_ants = 20000
# seed = 5
# filename = ants.nc
# netcdf_output_steps = 0
# screen_output_steps = 0
job 9 done
# length = 100
# time_steps = 100000
# total_ants = 20000
# seed = 9
# filename = ants.nc
# netcdf_output_steps = 0
# screen_output_steps = 0
job 13 done
# length = 100
# time_steps = 100000
# total_ants = 20000
# seed = 13
# filename = ants.nc
# netcdf_output_steps = 0
# screen_output_steps = 0
job 11 done
# length = 100
# time_steps = 100000
# total_ants = 20000
# seed = 11
# filename = ants.nc
# netcdf_output_steps = 0
# screen_output_steps = 0
job 14 done
# length = 100
# time_steps = 100000
# total_ants = 20000
# seed = 14
# filename = ants.nc
# netcdf_output_steps = 0
# screen_output_steps = 0
job 8 done
# length = 100
# time_steps = 100000
# total_ants = 20000
# seed = 8
# filename = ants.nc
# netcdf_output_steps = 0
# screen_output_steps = 0
job 12 done
# length = 100
# time_steps = 100000
# total_ants = 20000
# seed = 12
# filename = ants.nc
# netcdf_output_steps = 0
# screen_output_steps = 0
job 10 done
# length = 100
# time_steps = 100000
# total_ants = 20000
# seed = 10
# filename = ants.nc
# netcdf_output_steps = 0
# screen_output_steps = 0
job 15 done
# length = 100
# time_steps = 100000
# total_ants = 20000
# seed = 15
# filename = ants.nc
# netcdf_output_steps = 0
# screen_output_steps = 0
job 17 done
# length = 100
# time_steps = 100000
# total_ants = 20000
# seed = 17
# filename = ants.nc
# netcdf_output_steps = 0
# screen_output_steps = 0
job 18 done
# length = 100
# time_steps = 100000
# total_ants = 20000
# seed = 18
# filename = ants.nc
# netcdf_output_steps = 0
# screen_output_steps = 0
job 16 done
# length = 100
# time_steps = 100000
# total_ants = 20000
# seed = 16
# filename = ants.nc
# netcdf_output_steps = 0
# screen_output_steps = 0
job 20 done
# length = 100
# time_steps = 100000
# total_ants = 20000
# seed = 20
# filename = ants.nc
# netcdf_output_steps = 0
# screen_output_steps = 0
job 19 done
# length = 100
# time_steps = 100000
# total_ants = 20000
# seed = 19
# filename = ants.nc
# netcdf_output_steps = 0
# screen_output_steps = 0
job 21 done
# length = 100
# time_steps = 100000
# total_ants = 20000
# seed = 21
# filename = ants.nc
# netcdf_output_steps = 0
# screen_output_steps = 0
job 22 done
# length = 100
# time_steps = 100000
# total_ants = 20000
# seed = 22
# filename = ants.nc
# netcdf_output_steps = 0
# screen_output_steps = 0
job 23 done
# length = 100
# time_steps = 100000
# total_ants = 20000
# seed = 23
# filename = ants.nc
# netcdf_output_steps = 0
# screen_output_steps = 0
job 24 done
# length = 100
# time_steps = 100000
# total_ants = 20000
# seed = 24
# filename = ants.nc
# netcdf_output_steps = 0
# screen_output_steps = 0
job 27 done
# length = 100
# time_steps = 100000
# total_ants = 20000
# seed = 27
# filename = ants.nc
# netcdf_output_steps = 0
# screen_output_steps = 0
job 26 done
# length = 100
# time_steps = 100000
# total_ants = 20000
# seed = 26
# filename = ants.nc
# netcdf_output_steps = 0
# screen_output_steps = 0
job 28 done
# length = 100
# time_steps = 100000
# total_ants = 20000
# seed = 28
# filename = ants.nc
# netcdf_output_steps = 0
# screen_output_steps = 0
job 25 done
# length = 100
# time_steps = 100000
# total_ants = 20000
# seed = 25
# filename = ants.nc
# netcdf_output_steps = 0
# screen_output_steps = 0
job 29 done
# length = 100
# time_steps = 100000
# total_ants = 20000
# seed = 29
# filename = ants.nc
# netcdf_output_steps = 0
# screen_output_steps = 0
job 30 done
# length = 100
# time_steps = 100000
# total_ants = 20000
# seed = 30
# filename = ants.nc
# netcdf_output_steps = 0
# screen_output_steps = 0
job 33 done
# length = 100
# time_steps = 100000
# total_ants = 20000
# seed = 33
# filename = ants.nc
# netcdf_output_steps = 0
# screen_output_steps = 0
job 32 done
# length = 100
# time_steps = 100000
# total_ants = 20000
# seed = 32
# filename = ants.nc
# netcdf_output_steps = 0
# screen_output_steps = 0
job 31 done
# length = 100
# time_steps = 100000
# total_ants = 20000
# seed = 31
# filename = ants.nc
# netcdf_output_steps = 0
# screen_output_steps = 0
job 34 done
# length = 100
# time_steps = 100000
# total_ants = 20000
# seed = 34
# filename = ants.nc
# netcdf_output_steps = 0
# screen_output_steps = 0
job 35 done
# length = 100
# time_steps = 100000
# total_ants = 20000
# seed = 35
# filename = ants.nc
# netcdf_output_steps = 0
# screen_output_steps = 0
job 36 done
# length = 100
# time_steps = 100000
# total_ants = 20000
# seed = 36
# filename = ants.nc
# netcdf_output_steps = 0
# screen_output_steps = 0
job 37 done
# length = 100
# time_steps = 100000
# total_ants = 20000
# seed = 37
# filename = ants.nc
# netcdf_output_steps = 0
# screen_output_steps = 0
job 38 done
# length = 100
# time_steps = 100000
# total_ants = 20000
# seed = 38
# filename = ants.nc
# netcdf_output_steps = 0
# screen_output_steps = 0
job 39 done
# length = 100
# time_steps = 100000
# total_ants = 20000
# seed = 39
# filename = ants.nc
# netcdf_output_steps = 0
# screen_output_steps = 0
job 40 done
# length = 100
# time_steps = 100000
# total_ants = 20000
# seed = 40
# filename = ants.nc
# netcdf_output_steps = 0
# screen_output_steps = 0
job 41 done
# length = 150
# time_steps = 100000
# total_ants = 20000
# seed = 1
# filename = ants.nc
# netcdf_output_steps = 0
# screen_output_steps = 0
job 42 done
# length = 150
# time_steps = 100000
# total_ants = 20000
# seed = 2
# filename = ants.nc
# netcdf_output_steps = 0
# screen_output_steps = 0
job 43 done
# length = 150
# time_steps = 100000
# total_ants = 20000
# seed = 3
# filename = ants.nc
# netcdf_output_steps = 0
# screen_output_steps = 0
job 44 done
# length = 150
# time_steps = 100000
# total_ants = 20000
# seed = 4
# filename = ants.nc
# netcdf_output_steps = 0
# screen_output_steps = 0
job 46 done
# length = 150
# time_steps = 100000
# total_ants = 20000
# seed = 6
# filename = ants.nc
# netcdf_output_steps = 0
# screen_output_steps = 0
job 45 done
# length = 150
# time_steps = 100000
# total_ants = 20000
# seed = 5
# filename = ants.nc
# netcdf_output_steps = 0
# screen_output_steps = 0
job 47 done
# length = 150
# time_steps = 100000
# total_ants = 20000
# seed = 7
# filename = ants.nc
# netcdf_output_steps = 0
# screen_output_steps = 0
job 48 done
# length = 150
# time_steps = 100000
# total_ants = 20000
# seed = 8
# filename = ants.nc
# netcdf_output_steps = 0
# screen_output_steps = 0
job 49 done
# length = 150
# time_steps = 100000
# total_ants = 20000
# seed = 9
# filename = ants.nc
# netcdf_output_steps = 0
# screen_output_steps = 0
job 50 done
# length = 150
# time_steps = 100000
# total_ants = 20000
# seed = 10
# filename = ants.nc
# netcdf_output_steps = 0
# screen_output_steps = 0
job 51 done
# length = 150
# time_steps = 100000
# total_ants = 20000
# seed = 11
# filename = ants.nc
# netcdf_output_steps = 0
# screen_output_steps = 0
job 54 done
# length = 150
# time_steps = 100000
# total_ants = 20000
# seed = 14
# filename = ants.nc
# netcdf_output_steps = 0
# screen_output_steps = 0
job 52 done
# length = 150
# time_steps = 100000
# total_ants = 20000
# seed = 12
# filename = ants.nc
# netcdf_output_steps = 0
# screen_output_steps = 0
job 53 done
# length = 150
# time_steps = 100000
# total_ants = 20000
# seed = 13
# filename = ants.nc
# netcdf_output_steps = 0
# screen_output_steps = 0
job 55 done
# length = 150
# time_steps = 100000
# total_ants = 20000
# seed = 15
# filename = ants.nc
# netcdf_output_steps = 0
# screen_output_steps = 0
job 56 done
# length = 150
# time_steps = 100000
# total_ants = 20000
# seed = 16
# filename = ants.nc
# netcdf_output_steps = 0
# screen_output_steps = 0
job 57 done
# length = 150
# time_steps = 100000
# total_ants = 20000
# seed = 17
# filename = ants.nc
# netcdf_output_steps = 0
# screen_output_steps = 0
job 59 done
# length = 150
# time_steps = 100000
# total_ants = 20000
# seed = 19
# filename = ants.nc
# netcdf_output_steps = 0
# screen_output_steps = 0
job 58 done
# length = 150
# time_steps = 100000
# total_ants = 20000
# seed = 18
# filename = ants.nc
# netcdf_output_steps = 0
# screen_output_steps = 0
job 61 done
# length = 150
# time_steps = 100000
# total_ants = 20000
# seed = 21
# filename = ants.nc
# netcdf_output_steps = 0
# screen_output_steps = 0
job 60 done
# length = 150
# time_steps = 100000
# total_ants = 20000
# seed = 20
# filename = ants.nc
# netcdf_output_steps = 0
# screen_output_steps = 0
job 62 done
# length = 150
# time_steps = 100000
# total_ants = 20000
# seed = 22
# filename = ants.nc
# netcdf_output_steps = 0
# screen_output_steps = 0
job 63 done
# length = 150
# time_steps = 100000
# total_ants = 20000
# seed = 23
# filename = ants.nc
# netcdf_output_steps = 0
# screen_output_steps = 0
job 64 done
# length = 150
# time_steps = 100000
# total_ants = 20000
# seed = 24
# filename = ants.nc
# netcdf_output_steps = 0
# screen_output_steps = 0
job 66 done
# length = 150
# time_steps = 100000
# total_ants = 20000
# seed = 26
# filename = ants.nc
# netcdf_output_steps = 0
# screen_output_steps = 0
job 65 done
# length = 150
# time_steps = 100000
# total_ants = 20000
# seed = 25
# filename = ants.nc
# netcdf_output_steps = 0
# screen_output_steps = 0
job 67 done
# length = 150
# time_steps = 100000
# total_ants = 20000
# seed = 27
# filename = ants.nc
# netcdf_output_steps = 0
# screen_output_steps = 0
job 68 done
# length = 150
# time_steps = 100000
# total_ants = 20000
# seed = 28
# filename = ants.nc
# netcdf_output_steps = 0
# screen_output_steps = 0
job 69 done
# length = 150
# time_steps = 100000
# total_ants = 20000
# seed = 29
# filename = ants.nc
# netcdf_output_steps = 0
# screen_output_steps = 0
job 70 done
# length = 150
# time_steps = 100000
# total_ants = 20000
# seed = 30
# filename = ants.nc
# netcdf_output_steps = 0
# screen_output_steps = 0
job 71 done
# length = 150
# time_steps = 100000
# total_ants = 20000
# seed = 31
# filename = ants.nc
# netcdf_output_steps = 0
# screen_output_steps = 0
job 73 done
# length = 150
# time_steps = 100000
# total_ants = 20000
# seed = 33
# filename = ants.nc
# netcdf_output_steps = 0
# screen_output_steps = 0
job 72 done
# length = 150
# time_steps = 100000
# total_ants = 20000
# seed = 32
# filename = ants.nc
# netcdf_output_steps = 0
# screen_output_steps = 0
job 74 done
# length = 150
# time_steps = 100000
# total_ants = 20000
# seed = 34
# filename = ants.nc
# netcdf_output_steps = 0
# screen_output_steps = 0
job 75 done
# length = 150
# time_steps = 100000
# total_ants = 20000
# seed = 35
# filename = ants.nc
# netcdf_output_steps = 0
# screen_output_steps = 0
job 76 done
# length = 150
# time_steps = 100000
# total_ants = 20000
# seed = 36
# filename = ants.nc
# netcdf_output_steps = 0
# screen_output_steps = 0
job 77 done
# length = 150
# time_steps = 100000
# total_ants = 20000
# seed = 37
# filename = ants.nc
# netcdf_output_steps = 0
# screen_output_steps = 0
job 78 done
# length = 150
# time_steps = 100000
# total_ants = 20000
# seed = 38
# filename = ants.nc
# netcdf_output_steps = 0
# screen_output_steps = 0
job 79 done
# length = 150
# time_steps = 100000
# total_ants = 20000
# seed = 39
# filename = ants.nc
# netcdf_output_steps = 0
# screen_output_steps = 0
job 80 done
# length = 150
# time_steps = 100000
# total_ants = 20000
# seed = 40
# filename = ants.nc
# netcdf_output_steps = 0
# screen_output_steps = 0
job 81 done
# length = 200
# time_steps = 100000
# total_ants = 20000
# seed = 1
# filename = ants.nc
# netcdf_output_steps = 0
# screen_output_steps = 0
job 82 done
# length = 200
# time_steps = 100000
# total_ants = 20000
# seed = 2
# filename = ants.nc
# netcdf_output_steps = 0
# screen_output_steps = 0
job 83 done
# length = 200
# time_steps = 100000
# total_ants = 20000
# seed = 3
# filename = ants.nc
# netcdf_output_steps = 0
# screen_output_steps = 0
job 84 done
# length = 200
# time_steps = 100000
# total_ants = 20000
# seed = 4
# filename = ants.nc
# netcdf_output_steps = 0
# screen_output_steps = 0
job 85 done
# length = 200
# time_steps = 100000
# total_ants = 20000
# seed = 5
# filename = ants.nc
# netcdf_output_steps = 0
# screen_output_steps = 0
job 86 done
# length = 200
# time_steps = 100000
# total_ants = 20000
# seed = 6
# filename = ants.nc
# netcdf_output_steps = 0
# screen_output_steps = 0
job 87 done
# length = 200
# time_steps = 100000
# total_ants = 20000
# seed = 7
# filename = ants.nc
# netcdf_output_steps = 0
# screen_output_steps = 0
job 88 done
# length = 200
# time_steps = 100000
# total_ants = 20000
# seed = 8
# filename = ants.nc
# netcdf_output_steps = 0
# screen_output_steps = 0
job 89 done
# length = 200
# time_steps = 100000
# total_ants = 20000
# seed = 9
# filename = ants.nc
# netcdf_output_steps = 0
# screen_output_steps = 0
job 90 done
# length = 200
# time_steps = 100000
# total_ants = 20000
# seed = 10
# filename = ants.nc
# netcdf_output_steps = 0
# screen_output_steps = 0
job 91 done
# length = 200
# time_steps = 100000
# total_ants = 20000
# seed = 11
# filename = ants.nc
# netcdf_output_steps = 0
# screen_output_steps = 0
job 92 done
# length = 200
# time_steps = 100000
# total_ants = 20000
# seed = 12
# filename = ants.nc
# netcdf_output_steps = 0
# screen_output_steps = 0
job 93 done
# length = 200
# time_steps = 100000
# total_ants = 20000
# seed = 13
# filename = ants.nc
# netcdf_output_steps = 0
# screen_output_steps = 0
job 94 done
# length = 200
# time_steps = 100000
# total_ants = 20000
# seed = 14
# filename = ants.nc
# netcdf_output_steps = 0
# screen_output_steps = 0
job 95 done
# length = 200
# time_steps = 100000
# total_ants = 20000
# seed = 15
# filename = ants.nc
# netcdf_output_steps = 0
# screen_output_steps = 0
job 96 done
# length = 200
# time_steps = 100000
# total_ants = 20000
# seed = 16
# filename = ants.nc
# netcdf_output_steps = 0
# screen_output_steps = 0
job 97 done
# length = 200
# time_steps = 100000
# total_ants = 20000
# seed = 17
# filename = ants.nc
# netcdf_output_steps = 0
# screen_output_steps = 0
job 98 done
# length = 200
# time_steps = 100000
# total_ants = 20000
# seed = 18
# filename = ants.nc
# netcdf_output_steps = 0
# screen_output_steps = 0
job 100 done
# length = 200
# time_steps = 100000
# total_ants = 20000
# seed = 20
# filename = ants.nc
# netcdf_output_steps = 0
# screen_output_steps = 0
job 99 done
# length = 200
# time_steps = 100000
# total_ants = 20000
# seed = 19
# filename = ants.nc
# netcdf_output_steps = 0
# screen_output_steps = 0
job 101 done
# length = 200
# time_steps = 100000
# total_ants = 20000
# seed = 21
# filename = ants.nc
# netcdf_output_steps = 0
# screen_output_steps = 0
job 102 done
# length = 200
# time_steps = 100000
# total_ants = 20000
# seed = 22
# filename = ants.nc
# netcdf_output_steps = 0
# screen_output_steps = 0
job 103 done
# length = 200
# time_steps = 100000
# total_ants = 20000
# seed = 23
# filename = ants.nc
# netcdf_output_steps = 0
# screen_output_steps = 0
job 104 done
# length = 200
# time_steps = 100000
# total_ants = 20000
# seed = 24
# filename = ants.nc
# netcdf_output_steps = 0
# screen_output_steps = 0
job 105 done
# length = 200
# time_steps = 100000
# total_ants = 20000
# seed = 25
# filename = ants.nc
# netcdf_output_steps = 0
# screen_output_steps = 0
job 107 done
# length = 200
# time_steps = 100000
# total_ants = 20000
# seed = 27
# filename = ants.nc
# netcdf_output_steps = 0
# screen_output_steps = 0
job 106 done
# length = 200
# time_steps = 100000
# total_ants = 20000
# seed = 26
# filename = ants.nc
# netcdf_output_steps = 0
# screen_output_steps = 0
job 108 done
# length = 200
# time_steps = 100000
# total_ants = 20000
# seed = 28
# filename = ants.nc
# netcdf_output_steps = 0
# screen_output_steps = 0
job 109 done
# length = 200
# time_steps = 100000
# total_ants = 20000
# seed = 29
# filename = ants.nc
# netcdf_output_steps = 0
# screen_output_steps = 0
job 110 done
# length = 200
# time_steps = 100000
# total_ants = 20000
# seed = 30
# filename = ants.nc
# netcdf_output_steps = 0
# screen_output_steps = 0
job 111 done
# length = 200
# time_steps = 100000
# total_ants = 20000
# seed = 31
# filename = ants.nc
# netcdf_output_steps = 0
# screen_output_steps = 0
job 112 done
# length = 200
# time_steps = 100000
# total_ants = 20000
# seed = 32
# filename = ants.nc
# netcdf_output_steps = 0
# screen_output_steps = 0
job 113 done
# length = 200
# time_steps = 100000
# total_ants = 20000
# seed = 33
# filename = ants.nc
# netcdf_output_steps = 0
# screen_output_steps = 0
job 114 done
# length = 200
# time_steps = 100000
# total_ants = 20000
# seed = 34
# filename = ants.nc
# netcdf_output_steps = 0
# screen_output_steps = 0
job 115 done
# length = 200
# time_steps = 100000
# total_ants = 20000
# seed = 35
# filename = ants.nc
# netcdf_output_steps = 0
# screen_output_steps = 0
job 116 done
# length = 200
# time_steps = 100000
# total_ants = 20000
# seed = 36
# filename = ants.nc
# netcdf_output_steps = 0
# screen_output_steps = 0
job 117 done
# length = 200
# time_steps = 100000
# total_ants = 20000
# seed = 37
# filename = ants.nc
# netcdf_output_steps = 0
# screen_output_steps = 0
job 118 done
# length = 200
# time_steps = 100000
# total_ants = 20000
# seed = 38
# filename = ants.nc
# netcdf_output_steps = 0
# screen_output_steps = 0
job 120 done
# length = 200
# time_steps = 100000
# total_ants = 20000
# seed = 40
# filename = ants.nc
# netcdf_output_steps = 0
# screen_output_steps = 0
job 119 done
# length = 200
# time_steps = 100000
# total_ants = 20000
# seed = 39
# filename = ants.nc
# netcdf_output_steps = 0
# screen_output_steps = 0
job 121 done
# length = 250
# time_steps = 100000
# total_ants = 20000
# seed = 1
# filename = ants.nc
# netcdf_output_steps = 0
# screen_output_steps = 0
job 122 done
# length = 250
# time_steps = 100000
# total_ants = 20000
# seed = 2
# filename = ants.nc
# netcdf_output_steps = 0
# screen_output_steps = 0
job 123 done
# length = 250
# time_steps = 100000
# total_ants = 20000
# seed = 3
# filename = ants.nc
# netcdf_output_steps = 0
# screen_output_steps = 0
job 124 done
# length = 250
# time_steps = 100000
# total_ants = 20000
# seed = 4
# filename = ants.nc
# netcdf_output_steps = 0
# screen_output_steps = 0
job 125 done
# length = 250
# time_steps = 100000
# total_ants = 20000
# seed = 5
# filename = ants.nc
# netcdf_output_steps = 0
# screen_output_steps = 0
job 126 done
# length = 250
# time_steps = 100000
# total_ants = 20000
# seed = 6
# filename = ants.nc
# netcdf_output_steps = 0
# screen_output_steps = 0
job 127 done
# length = 250
# time_steps = 100000
# total_ants = 20000
# seed = 7
# filename = ants.nc
# netcdf_output_steps = 0
# screen_output_steps = 0
job 128 done
# length = 250
# time_steps = 100000
# total_ants = 20000
# seed = 8
# filename = ants.nc
# netcdf_output_steps = 0
# screen_output_steps = 0
job 129 done
# length = 250
# time_steps = 100000
# total_ants = 20000
# seed = 9
# filename = ants.nc
# netcdf_output_steps = 0
# screen_output_steps = 0
job 130 done
# length = 250
# time_steps = 100000
# total_ants = 20000
# seed = 10
# filename = ants.nc
# netcdf_output_steps = 0
# screen_output_steps = 0
job 131 done
# length = 250
# time_steps = 100000
# total_ants = 20000
# seed = 11
# filename = ants.nc
# netcdf_output_steps = 0
# screen_output_steps = 0
job 132 done
# length = 250
# time_steps = 100000
# total_ants = 20000
# seed = 12
# filename = ants.nc
# netcdf_output_steps = 0
# screen_output_steps = 0
job 133 done
# length = 250
# time_steps = 100000
# total_ants = 20000
# seed = 13
# filename = ants.nc
# netcdf_output_steps = 0
# screen_output_steps = 0
job 134 done
# length = 250
# time_steps = 100000
# total_ants = 20000
# seed = 14
# filename = ants.nc
# netcdf_output_steps = 0
# screen_output_steps = 0
job 135 done
# length = 250
# time_steps = 100000
# total_ants = 20000
# seed = 15
# filename = ants.nc
# netcdf_output_steps = 0
# screen_output_steps = 0
job 136 done
# length = 250
# time_steps = 100000
# total_ants = 20000
# seed = 16
# filename = ants.nc
# netcdf_output_steps = 0
# screen_output_steps = 0
job 137 done
# length = 250
# time_steps = 100000
# total_ants = 20000
# seed = 17
# filename = ants.nc
# netcdf_output_steps = 0
# screen_output_steps = 0
job 138 done
# length = 250
# time_steps = 100000
# total_ants = 20000
# seed = 18
# filename = ants.nc
# netcdf_output_steps = 0
# screen_output_steps = 0
job 139 done
# length = 250
# time_steps = 100000
# total_ants = 20000
# seed = 19
# filename = ants.nc
# netcdf_output_steps = 0
# screen_output_steps = 0
job 141 done
# length = 250
# time_steps = 100000
# total_ants = 20000
# seed = 21
# filename = ants.nc
# netcdf_output_steps = 0
# screen_output_steps = 0
job 140 done
# length = 250
# time_steps = 100000
# total_ants = 20000
# seed = 20
# filename = ants.nc
# netcdf_output_steps = 0
# screen_output_steps = 0
job 142 done
# length = 250
# time_steps = 100000
# total_ants = 20000
# seed = 22
# filename = ants.nc
# netcdf_output_steps = 0
# screen_output_steps = 0
job 143 done
# length = 250
# time_steps = 100000
# total_ants = 20000
# seed = 23
# filename = ants.nc
# netcdf_output_steps = 0
# screen_output_steps = 0
job 144 done
# length = 250
# time_steps = 100000
# total_ants = 20000
# seed = 24
# filename = ants.nc
# netcdf_output_steps = 0
# screen_output_steps = 0
job 145 done
# length = 250
# time_steps = 100000
# total_ants = 20000
# seed = 25
# filename = ants.nc
# netcdf_output_steps = 0
# screen_output_steps = 0
job 146 done
# length = 250
# time_steps = 100000
# total_ants = 20000
# seed = 26
# filename = ants.nc
# netcdf_output_steps = 0
# screen_output_steps = 0
job 147 done
# length = 250
# time_steps = 100000
# total_ants = 20000
# seed = 27
# filename = ants.nc
# netcdf_output_steps = 0
# screen_output_steps = 0
job 148 done
# length = 250
# time_steps = 100000
# total_ants = 20000
# seed = 28
# filename = ants.nc
# netcdf_output_steps = 0
# screen_output_steps = 0
job 149 done
# length = 250
# time_steps = 100000
# total_ants = 20000
# seed = 29
# filename = ants.nc
# netcdf_output_steps = 0
# screen_output_steps = 0
job 150 done
# length = 250
# time_steps = 100000
# total_ants = 20000
# seed = 30
# filename = ants.nc
# netcdf_output_steps = 0
# screen_output_steps = 0
job 151 done
# length = 250
# time_steps = 100000
# total_ants = 20000
# seed = 31
# filename = ants.nc
# netcdf_output_steps = 0
# screen_output_steps = 0
job 152 done
# length = 250
# time_steps = 100000
# total_ants = 20000
# seed = 32
# filename = ants.nc
# netcdf_output_steps = 0
# screen_output_steps = 0
job 154 done
# length = 250
# time_steps = 100000
# total_ants = 20000
# seed = 34
# filename = ants.nc
# netcdf_output_steps = 0
# screen_output_steps = 0
job 153 done
# length = 250
# time_steps = 100000
# total_ants = 20000
# seed = 33
# filename = ants.nc
# netcdf_output_steps = 0
# screen_output_steps = 0
job 155 done
# length = 250
# time_steps = 100000
# total_ants = 20000
# seed = 35
# filename = ants.nc
# netcdf_output_steps = 0
# screen_output_steps = 0
job 156 done
# length = 250
# time_steps = 100000
# total_ants = 20000
# seed = 36
# filename = ants.nc
# netcdf_output_steps = 0
# screen_output_steps = 0
job 157 done
# length = 250
# time_steps = 100000
# total_ants = 20000
# seed = 37
# filename = ants.nc
# netcdf_output_steps = 0
# screen_output_steps = 0
job 158 done
# length = 250
# time_steps = 100000
# total_ants = 20000
# seed = 38
# filename = ants.nc
# netcdf_output_steps = 0
# screen_output_steps = 0
job 159 done
# length = 250
# time_steps = 100000
# total_ants = 20000
# seed = 39
# filename = ants.nc
# netcdf_output_steps = 0
# screen_output_steps = 0
job 160 done
# length = 250
# time_steps = 100000
# total_ants = 20000
# seed = 40
# filename = ants.nc
# netcdf_output_steps = 0
# screen_output_steps = 0
job 162 done
# length = 300
# time_steps = 100000
# total_ants = 20000
# seed = 2
# filename = ants.nc
# netcdf_output_steps = 0
# screen_output_steps = 0
job 161 done
# length = 300
# time_steps = 100000
# total_ants = 20000
# seed = 1
# filename = ants.nc
# netcdf_output_steps = 0
# screen_output_steps = 0
job 163 done
# length = 300
# time_steps = 100000
# total_ants = 20000
# seed = 3
# filename = ants.nc
# netcdf_output_steps = 0
# screen_output_steps = 0
job 164 done
# length = 300
# time_steps = 100000
# total_ants = 20000
# seed = 4
# filename = ants.nc
# netcdf_output_steps = 0
# screen_output_steps = 0
job 165 done
# length = 300
# time_steps = 100000
# total_ants = 20000
# seed = 5
# filename = ants.nc
# netcdf_output_steps = 0
# screen_output_steps = 0
job 166 done
# length = 300
# time_steps = 100000
# total_ants = 20000
# seed = 6
# filename = ants.nc
# netcdf_output_steps = 0
# screen_output_steps = 0
job 167 done
# length = 300
# time_steps = 100000
# total_ants = 20000
# seed = 7
# filename = ants.nc
# netcdf_output_steps = 0
# screen_output_steps = 0
job 169 done
# length = 300
# time_steps = 100000
# total_ants = 20000
# seed = 9
# filename = ants.nc
# netcdf_output_steps = 0
# screen_output_steps = 0
job 168 done
# length = 300
# time_steps = 100000
# total_ants = 20000
# seed = 8
# filename = ants.nc
# netcdf_output_steps = 0
# screen_output_steps = 0
job 170 done
# length = 300
# time_steps = 100000
# total_ants = 20000
# seed = 10
# filename = ants.nc
# netcdf_output_steps = 0
# screen_output_steps = 0
job 171 done
# length = 300
# time_steps = 100000
# total_ants = 20000
# seed = 11
# filename = ants.nc
# netcdf_output_steps = 0
# screen_output_steps = 0
job 172 done
# length = 300
# time_steps = 100000
# total_ants = 20000
# seed = 12
# filename = ants.nc
# netcdf_output_steps = 0
# screen_output_steps = 0
job 173 done
# length = 300
# time_steps = 100000
# total_ants = 20000
# seed = 13
# filename = ants.nc
# netcdf_output_steps = 0
# screen_output_steps = 0
job 174 done
# length = 300
# time_steps = 100000
# total_ants = 20000
# seed = 14
# filename = ants.nc
# netcdf_output_steps = 0
# screen_output_steps = 0
job 176 done
# length = 300
# time_steps = 100000
# total_ants = 20000
# seed = 16
# filename = ants.nc
# netcdf_output_steps = 0
# screen_output_steps = 0
job 175 done
# length = 300
# time_steps = 100000
# total_ants = 20000
# seed = 15
# filename = ants.nc
# netcdf_output_steps = 0
# screen_output_steps = 0
job 177 done
# length = 300
# time_steps = 100000
# total_ants = 20000
# seed = 17
# filename = ants.nc
# netcdf_output_steps = 0
# screen_output_steps = 0
job 178 done
# length = 300
# time_steps = 100000
# total_ants = 20000
# seed = 18
# filename = ants.nc
# netcdf_output_steps = 0
# screen_output_steps = 0
job 179 done
# length = 300
# time_steps = 100000
# total_ants = 20000
# seed = 19
# filename = ants.nc
# netcdf_output_steps = 0
# screen_output_steps = 0
job 180 done
# length = 300
# time_steps = 100000
# total_ants = 20000
# seed = 20
# filename = ants.nc
# netcdf_output_steps = 0
# screen_output_steps = 0
job 181 done
# length = 300
# time_steps = 100000
# total_ants = 20000
# seed = 21
# filename = ants.nc
# netcdf_output_steps = 0
# screen_output_steps = 0
job 183 done
# length = 300
# time_steps = 100000
# total_ants = 20000
# seed = 23
# filename = ants.nc
# netcdf_output_steps = 0
# screen_output_steps = 0
job 182 done
# length = 300
# time_steps = 100000
# total_ants = 20000
# seed = 22
# filename = ants.nc
# netcdf_output_steps = 0
# screen_output_steps = 0
job 184 done
# length = 300
# time_steps = 100000
# total_ants = 20000
# seed = 24
# filename = ants.nc
# netcdf_output_steps = 0
# screen_output_steps = 0
job 185 done
# length = 300
# time_steps = 100000
# total_ants = 20000
# seed = 25
# filename = ants.nc
# netcdf_output_steps = 0
# screen_output_steps = 0
job 186 done
# length = 300
# time_steps = 100000
# total_ants = 20000
# seed = 26
# filename = ants.nc
# netcdf_output_steps = 0
# screen_output_steps = 0
job 187 done
# length = 300
# time_steps = 100000
# total_ants = 20000
# seed = 27
# filename = ants.nc
# netcdf_output_steps = 0
# screen_output_steps = 0
job 188 done
# length = 300
# time_steps = 100000
# total_ants = 20000
# seed = 28
# filename = ants.nc
# netcdf_output_steps = 0
# screen_output_steps = 0
job 189 done
# length = 300
# time_steps = 100000
# total_ants = 20000
# seed = 29
# filename = ants.nc
# netcdf_output_steps = 0
# screen_output_steps = 0
job 190 done
# length = 300
# time_steps = 100000
# total_ants = 20000
# seed = 30
# filename = ants.nc
# netcdf_output_steps = 0
# screen_output_steps = 0
job 191 done
# length = 300
# time_steps = 100000
# total_ants = 20000
# seed = 31
# filename = ants.nc
# netcdf_output_steps = 0
# screen_output_steps = 0
job 192 done
# length = 300
# time_steps = 100000
# total_ants = 20000
# seed = 32
# filename = ants.nc
# netcdf_output_steps = 0
# screen_output_steps = 0
job 193 done
# length = 300
# time_steps = 100000
# total_ants = 20000
# seed = 33
# filename = ants.nc
# netcdf_output_steps = 0
# screen_output_steps = 0
job 194 done
# length = 300
# time_steps = 100000
# total_ants = 20000
# seed = 34
# filename = ants.nc
# netcdf_output_steps = 0
# screen_output_steps = 0
job 195 done
# length = 300
# time_steps = 100000
# total_ants = 20000
# seed = 35
# filename = ants.nc
# netcdf_output_steps = 0
# screen_output_steps = 0
job 196 done
# length = 300
# time_steps = 100000
# total_ants = 20000
# seed = 36
# filename = ants.nc
# netcdf_output_steps = 0
# screen_output_steps = 0
job 197 done
# length = 300
# time_steps = 100000
# total_ants = 20000
# seed = 37
# filename = ants.nc
# netcdf_output_steps = 0
# screen_output_steps = 0
job 198 done
# length = 300
# time_steps = 100000
# total_ants = 20000
# seed = 38
# filename = ants.nc
# netcdf_output_steps = 0
# screen_output_steps = 0
job 199 done
# length = 300
# time_steps = 100000
# total_ants = 20000
# seed = 39
# filename = ants.nc
# netcdf_output_steps = 0
# screen_output_steps = 0
job 200 done
# length = 300
# time_steps = 100000
# total_ants = 20000
# seed = 40
# filename = ants.nc
# netcdf_output_steps = 0
# screen_output_steps = 0

scontrol show jobid 43192
JobId=43192 JobName=ants-x07
   UserId=dmarek(3074164) GroupId=triverio(6003903) MCS_label=N/A
   Priority=389873 Nice=0 Account=teach QOS=normal
   JobState=COMPLETING Reason=None Dependency=(null)
   Requeue=0 Restarts=0 BatchFlag=1 Reboot=0 ExitCode=0:0
   RunTime=00:27:57 TimeLimit=01:00:00 TimeMin=N/A
   SubmitTime=2019-03-26T09:36:09 EligibleTime=2019-03-26T09:36:09
   StartTime=2019-03-26T09:36:10 EndTime=2019-03-26T10:04:07 Deadline=N/A
   PreemptTime=None SuspendTime=None SecsPreSuspend=0
   LastSchedEval=2019-03-26T09:36:10
   Partition=compute AllocNode:Sid=teach01:19902
   ReqNodeList=(null) ExcNodeList=(null)
   NodeList=teach02
   BatchHost=teach02
   NumNodes=1 NumCPUs=16 NumTasks=16 CPUs/Task=1 ReqB:S:C:T=0:0:*:*
   TRES=cpu=16,node=1,billing=16
   Socks/Node=* NtasksPerN:B:S:C=16:0:*:1 CoreSpec=*
   MinCPUsNode=16 MinMemoryNode=0 MinTmpDiskNode=0
   Features=(null) DelayBoot=00:00:00
   Gres=(null) Reservation=(null)
   OverSubscribe=OK Contiguous=0 Licenses=(null) Network=(null)
   Command=/gpfs/fs0/scratch/t/triverio/dmarek/antsontable_parallel/ants-x07/parallel07.slurm
   WorkDir=/gpfs/fs0/scratch/t/triverio/dmarek/antsontable_parallel/ants-x07
   StdErr=/gpfs/fs0/scratch/t/triverio/dmarek/antsontable_parallel/ants-x07/ants-x07.txt
   StdIn=/dev/null
   StdOut=/gpfs/fs0/scratch/t/triverio/dmarek/antsontable_parallel/ants-x07/ants-x07.txt
   Power=

sacct -j 43192
       JobID    JobName    Account    Elapsed  MaxVMSize     MaxRSS  SystemCPU    UserCPU ExitCode 
------------ ---------- ---------- ---------- ---------- ---------- ---------- ---------- -------- 
43192          ants-x07      teach   00:27:57                        00:12.116   03:09:36      0:0 
43192.batch       batch      teach   00:27:57   1298220K     53060K  00:12.116   03:09:36      0:0 
